…
Example --- Data import
=======================================================


```r
# Read in breast cancer data
ttbcs_tbl = read_csv("CSV/ttbcs.csv")
ttbcs_tbl
```


```
# A tibble: 1,767 x 21
   patient_code birth_date core_biopsy
          <chr>      <chr>       <chr>
 1      B003920 1931-07-08  2013-03-20
 2      B019064 1930-06-03  2011-04-18
 3      B041025 1934-05-16  2013-07-31
 4      B049838 1935-01-08  2011-06-20
 5      B055154 1938-11-23  2008-07-07
 6      B057829 1923-04-19  2009-08-03
 7      B060717 1929-01-29  2008-07-01
 8      B061836 1940-07-24  2009-12-08
 9      B073978 1939-11-10  2010-06-11
10      B089272 1943-09-10  2011-08-08
# ... with 1,757 more rows, and 18 more
#   variables: death_date <dttm>,
#   ethnicity <chr>, censored <int>,
#   dataset <chr>, t_stage <chr>,
#   n_stage <chr>, m_stage <chr>,
#   overall_tmn_stage <chr>,
#   presented <chr>,
#   surgery_type <chr>, size <dbl>,
#   radiation <chr>,
…
