Tidyverse
…
Each dataset goes in a tibble.

Each column represents a variable.

Each row represents an observation.

Columns are lists that can store richer data structure, i.e. list-cols.

Tibble

library(nycflights13)
flights

# A tibble: 336,776 x 19
    year month   day dep_time
   <int> <int> <int>    <int>
 1  2013     1     1      517
 2  2013     1     1      533
 3  2013     1     1      542
 4  2013     1     1      544
 5  2013     1     1      554
 6  2013     1     1      554
 7  2013     1     1      555
 8  2013     1     1      557
 9  2013     1     1      557
10  2013     1     1      558
# ... with 336,766 more rows, and 15
#   more variables:
#   sched_dep_time <int>,
#   dep_delay <dbl>, arr_time <int>,
#   sched_arr_time <int>,
#   arr_delay <dbl>, carrier <chr>,
#   flight <int>, tailnum <chr>,
#   origin <chr>, dest <chr>,
#   air_time <dbl>, distance <dbl>,
…
Example

Trans-Tasman Breast Cancer Study

Recent client.

Interested in understanding the differences in breast cancer survival times for patients in Waitemata and Brisbane hospitals.

Example --- Data import

# Read in breast cancer data
ttbcs_tbl = read_csv("CSV/ttbcs.csv")
ttbcs_tbl

# A tibble: 1,767 x 21
   patient_code birth_date core_biopsy
          <chr>      <chr>       <chr>
 1      B003920 1931-07-08  2013-03-20
 2      B019064 1930-06-03  2011-04-18
 3      B041025 1934-05-16  2013-07-31
 4      B049838 1935-01-08  2011-06-20
 5      B055154 1938-11-23  2008-07-07
 6      B057829 1923-04-19  2009-08-03
 7      B060717 1929-01-29  2008-07-01
 8      B061836 1940-07-24  2009-12-08
 9      B073978 1939-11-10  2010-06-11
10      B089272 1943-09-10  2011-08-08
# ... with 1,757 more rows, and 18 more
#   variables: death_date <dttm>,
#   ethnicity <chr>, censored <int>,
#   dataset <chr>, t_stage <chr>,
#   n_stage <chr>, m_stage <chr>,
#   overall_tmn_stage <chr>,
#   presented <chr>,
#   surgery_type <chr>, size <dbl>,
#   radiation <chr>,
…
